%YAML 1.1
%TAG !u! tag:unity3d.com,2011:
--- !u!114 &11400000
MonoBehaviour:
  m_ObjectHideFlags: 0
  m_CorrespondingSourceObject: {fileID: 0}
  m_PrefabInstance: {fileID: 0}
  m_PrefabAsset: {fileID: 0}
  m_GameObject: {fileID: 0}
  m_Enabled: 1
  m_EditorHideFlags: 0
  m_Script: {fileID: 11500000, guid: c0e2ce794cca8ad438d72f6f926d824e, type: 3}
  m_Name: CityCenterScriptableObject
  m_EditorClassIdentifier: 
  type: 1
  buildPositions:
  - 0.5
  - -0.5
  upgradeTimeFromLevel:
  - 10
  - 20
  - 30
  - 40
  upgradeCostFromLevel: 0a000000140000001e00000028000000
  repairTimeForLevel:
  - 10
  - 20
  - 30
  - 40
  repairCostForLevel: 0a000000140000001e00000028000000
  currMaxLevelByCityCenter: 010000000200000003000000
  minLvlToSpawn: 99
